<svg xmlns="http://www.w3.org/2000/svg" width="21.922" height="21.931" viewBox="0 0 21.922 21.931">
  <g id="Group_778" data-name="Group 778" transform="translate(0 0)">
    <g id="Group_777" data-name="Group 777" transform="translate(0 0)">
      <g id="Group_776" data-name="Group 776">
        <rect id="Rectangle_211" data-name="Rectangle 211" width="4.526" height="14.621" transform="translate(0.435 7.31)" fill="#0d152b"/>
        <path id="Path_122" data-name="Path 122" d="M328.55,196.252a2.7,2.7,0,1,0-2.676-2.7A2.688,2.688,0,0,0,328.55,196.252Z" transform="translate(-325.874 -190.857)" fill="#0d152b"/>
      </g>
      <path id="Path_123" data-name="Path 123" d="M337.05,204.222c0-2.055.946-3.28,2.757-3.28,1.665,0,2.465,1.176,2.465,3.28V211.9h4.5V202.64c0-3.916-2.22-5.81-5.321-5.81a5.1,5.1,0,0,0-4.406,2.415v-1.968h-4.341V211.9h4.341Z" transform="translate(-324.854 -189.966)" fill="#0d152b"/>
    </g>
  </g>
</svg>
